Geometry file
Geometry file
node id assign
element id assign
coordinates
       8
 0.00000e+00 0.00000e+00 0.00000e+00
 1.00000e+00 0.00000e+00 0.00000e+00
 1.00000e+00 1.00000e+00 0.00000e+00
 0.00000e+00 1.00000e+00 0.00000e+00
 0.00000e+00 0.00000e+00 1.00000e+00
 1.00000e+00 0.00000e+00 1.00000e+00
 1.00000e+00 1.00000e+00 1.00000e+00
 0.00000e+00 1.00000e+00 1.00000e+00
part       1
MeshLabel 1
quad4
       1
       5       1       4       8
part       2
MeshLabel 2
quad4
       1
       1       2       6       5
part       3
MeshLabel 3
quad4
       1
       1       2       3       4
part       4
MeshLabel 4
quad4
       1
       6       2       3       7
part       5
MeshLabel 5
quad4
       1
       8       7       3       4
part       6
MeshLabel 6
quad4
       1
       5       6       7       8
part       7
MeshLabel 20
bar2
      11
       1       2
       2       3
       3       4
       4       1
       5       6
       6       7
       7       8
       8       5
       8       4
       5       1
       2       6
part       8
MeshLabel 30
hexa8
       1
       1       2       3       4       5       6       7       8
part       9
MeshLabel 50
bar2
       1
       3       7
