grid solution 
0.000000e+00 0.000000e+00 
5.000000e-01 1.338164e-03 
1.000000e+00 5.499095e-03 
1.500000e+00 2.008239e-02 
2.000000e+00 6.739592e-02 
2.500000e+00 2.045446e-01 
3.000000e+00 5.499041e-01 
3.500000e+00 1.281745e+00 
4.000000e+00 2.537830e+00 
4.500000e+00 4.193084e+00 
5.000000e+00 5.701255e+00 
5.500000e+00 6.322612e+00 
6.000000e+00 5.701255e+00 
6.500000e+00 4.193084e+00 
7.000000e+00 2.537829e+00 
7.500000e+00 1.281741e+00 
8.000000e+00 5.498859e-01 
8.500000e+00 2.044640e-01 
9.000000e+00 6.705068e-02 
9.500000e+00 1.866738e-02 
1.000000e+01 0.000000e+00 
