grid solution 
0.000000e+00 0.000000e+00 
5.000000e-01 3.016475e-03 
1.000000e+00 1.120945e-02 
1.500000e+00 3.643083e-02 
2.000000e+00 1.083382e-01 
2.500000e+00 2.915447e-01 
3.000000e+00 6.988866e-01 
3.500000e+00 1.468667e+00 
4.000000e+00 2.665083e+00 
4.500000e+00 4.121749e+00 
5.000000e+00 5.377753e+00 
5.500000e+00 5.880757e+00 
6.000000e+00 5.377753e+00 
6.500000e+00 4.121748e+00 
7.000000e+00 2.665080e+00 
7.500000e+00 1.468654e+00 
8.000000e+00 6.988306e-01 
8.500000e+00 2.913183e-01 
9.000000e+00 1.074614e-01 
9.500000e+00 3.320071e-02 
1.000000e+01 0.000000e+00 
